<?xml version="1.0" encoding="UTF-8" standalone="no"?>
<svg
   xmlns:dc="http://purl.org/dc/elements/1.1/"
   xmlns:cc="http://creativecommons.org/ns#"
   xmlns:rdf="http://www.w3.org/1999/02/22-rdf-syntax-ns#"
   xmlns:svg="http://www.w3.org/2000/svg"
   xmlns="http://www.w3.org/2000/svg"
   xmlns:sodipodi="http://sodipodi.sourceforge.net/DTD/sodipodi-0.dtd"
   xmlns:inkscape="http://www.inkscape.org/namespaces/inkscape"
   height="25"
   width="25"
   id="svg2"
   version="1.1"
   inkscape:version="0.91 r13725"
   sodipodi:docname="border-default-top-right.svg">
  <metadata
     id="metadata10">
    <rdf:RDF>
      <cc:Work
         rdf:about="">
        <dc:format>image/svg+xml</dc:format>
        <dc:type
           rdf:resource="http://purl.org/dc/dcmitype/StillImage" />
        <dc:title></dc:title>
      </cc:Work>
    </rdf:RDF>
  </metadata>
  <defs
     id="defs8" />
  <sodipodi:namedview
     pagecolor="#ffffff"
     bordercolor="#666666"
     borderopacity="1"
     objecttolerance="10"
     gridtolerance="10"
     guidetolerance="10"
     inkscape:pageopacity="0"
     inkscape:pageshadow="2"
     inkscape:window-width="1600"
     inkscape:window-height="876"
     id="namedview6"
     showgrid="false"
     inkscape:zoom="9.44"
     inkscape:cx="12.5"
     inkscape:cy="12.5"
     inkscape:window-x="0"
     inkscape:window-y="24"
     inkscape:window-maximized="1"
     inkscape:current-layer="svg2" />
  <path
     style="fill:#05fcfc;fill-opacity:1;stroke:#05fcfc;stroke-width:0.10593221;stroke-opacity:1"
     d="m 22.033898,6.440678 0,-3.4957627 -3.495762,0 -3.495763,0 0,-1.4300848 0,-1.43008474 4.978813,0 4.978814,0 0,4.92584744 0,4.9258475 -1.483051,0 -1.483051,0 0,-3.4957627 z"
     id="path4140"
     inkscape:connector-curvature="0" />
  <path
     style="fill:#05fcfc;fill-opacity:1;stroke:#05fcfc;stroke-width:0.10593221;stroke-opacity:1"
     d="M 0 15.021484 L 0 20 L 0 24.978516 L 4.9785156 24.978516 L 9.9570312 24.978516 L 9.9570312 23.496094 L 9.9570312 22.013672 L 6.4609375 22.013672 L 2.9667969 22.013672 L 2.9667969 18.517578 L 2.9667969 15.021484 L 1.4824219 15.021484 L 0 15.021484 z "
     id="path4144" />
</svg>
